%YAML 1.1
%TAG !u! tag:unity3d.com,2011:
--- !u!1045 &1
EditorBuildSettings:
  m_ObjectHideFlags: 0
  serializedVersion: 2
  m_Scenes:
  - enabled: 1
    path: Assets/Scenes/NewGUI.unity
    guid: 33949f6113583abad9805dceeccff9d3
  - enabled: 1
    path: Assets/Scenes/MainMenu.unity
    guid: 64957486556c848ce84a568e876495dc
  - enabled: 1
    path: Assets/Scenes/Endless.unity
    guid: 60ba9cf9ea57d47129a508604c975a5c
  - enabled: 1
    path: Assets/Scenes/Prof-Mode.unity
    guid: a5a626ea13f014f778288c367d8ba30d
  - enabled: 1
    path: Assets/Scenes/Boss-Mode.unity
    guid: 4106ab3aa73df4ec9a4e344e48937208
  - enabled: 1
    path: Assets/Scenes/Triple-Choose.unity
    guid: d053e4d08b0e546b191ba983bd599582
  - enabled: 1
    path: Assets/Scenes/Triple-Change.unity
    guid: 8dd404ca971cd49ed8d2f1d9195a84c9
  - enabled: 1
    path: Assets/Scenes/Tutorial.unity
    guid: ef9674e08994844a78d15639f7c91bd4
  - enabled: 1
    path: Assets/Scenes/Loading.unity
    guid: 9b2a9d89de198477da32227a737fa9a2
  - enabled: 1
    path: Assets/Scenes/Daily.unity
    guid: bd0dbad1f0a3243c396ec111720383b9
  - enabled: 1
    path: Assets/Scenes/level+.unity
    guid: 86aa8bb091dff49cc9bcfe5b2ff21b80
  - enabled: 1
    path: Assets/Scenes/Multiplayer.unity
    guid: e88103eb4ffbbad67b76f8988a837d7b
  m_configObjects: {}
